<svg width="48" height="44" viewBox="0 0 48 44" fill="none" xmlns="http://www.w3.org/2000/svg">
<g clip-path="url(#clip0_118_31732)">
<path d="M47.7899 40.2737L43.2399 31.6509V2.89933C43.2399 1.70302 42.0436 0.5 40.8406 0.5H7.29033C6.09403 0.5 4.89772 1.6963 4.89772 2.89933V31.6509L0.105786 40.2737C-0.371391 41.9539 0.824913 43.6274 2.50511 43.6274H45.6325C47.306 43.6274 48.509 41.9539 47.7899 40.2737ZM9.68966 5.29193H38.4413V24.4597H9.68966V5.29193ZM16.8809 41.2348L21.6729 36.4429H26.4648L31.2567 41.2348H16.8809Z" fill="#85B867"/>
</g>
<defs>
<clipPath id="clip0_118_31732">
<rect width="48" height="43.1274" fill="white" transform="translate(0 0.5)"/>
</clipPath>
</defs>
</svg>
