<svg width="32" height="24" viewBox="0 0 32 24" fill="none" xmlns="http://www.w3.org/2000/svg">
<path d="M2.39941 11.9365H26.3994" stroke="#3076D7" stroke-width="1.6" stroke-linecap="round" stroke-linejoin="round"/>
<path d="M20.3994 4.93652L27.3994 11.9365L20.3994 18.9365" stroke="#3076D7" stroke-width="1.6" stroke-linecap="round" stroke-linejoin="round"/>
</svg>
