<svg width="33" height="32" viewBox="0 0 33 32" fill="none" xmlns="http://www.w3.org/2000/svg">
<mask id="mask0_95_21052" style="mask-type:alpha" maskUnits="userSpaceOnUse" x="0" y="0" width="33" height="32">
<rect x="0.807617" y="0.307617" width="31.3846" height="31.3846" fill="#D9D9D9"/>
</mask>
<g mask="url(#mask0_95_21052)">
<path d="M7.73715 25.1538H19.1141V18.6153H25.6525V7.23837C25.6525 7.12939 25.6146 7.03698 25.5388 6.96114C25.462 6.88442 25.3692 6.84606 25.2602 6.84606H7.73715C7.62817 6.84606 7.53576 6.88442 7.45992 6.96114C7.3832 7.03698 7.34484 7.12939 7.34484 7.23837V24.7614C7.34484 24.8704 7.3832 24.9633 7.45992 25.04C7.53576 25.1158 7.62817 25.1538 7.73715 25.1538ZM7.73715 27.1153C7.0833 27.1153 6.52753 26.8864 6.06984 26.4288C5.61215 25.9711 5.3833 25.4153 5.3833 24.7614V7.23837C5.3833 6.58452 5.61215 6.02875 6.06984 5.57106C6.52753 5.11337 7.0833 4.88452 7.73715 4.88452H25.2602C25.9141 4.88452 26.4698 5.11337 26.9275 5.57106C27.3852 6.02875 27.6141 6.58452 27.6141 7.23837V19.4653L19.9641 27.1153H7.73715ZM10.5487 18.2557V16.2941H16.4987V18.2557H10.5487ZM10.5487 13.0576V11.0961H22.4487V13.0576H10.5487Z" fill="#3076D7"/>
</g>
</svg>
