<svg width="34" height="34" viewBox="0 0 34 34" fill="none" xmlns="http://www.w3.org/2000/svg">
<mask id="mask0_295_22878" style="mask-type:alpha" maskUnits="userSpaceOnUse" x="0" y="0" width="34" height="34">
<rect width="34" height="34" fill="#D9D9D9"/>
</mask>
<g mask="url(#mask0_295_22878)">
<path d="M3.54297 27.6258V14.5924C3.54297 13.8841 3.79089 13.282 4.28672 12.7862C4.78255 12.2904 5.38464 12.0424 6.09297 12.0424H10.2721V9.35078C10.2721 8.64245 10.5201 8.04036 11.0159 7.54453C11.5117 7.0487 12.1138 6.80078 12.8221 6.80078H21.1805C21.8888 6.80078 22.4909 7.0487 22.9867 7.54453C23.4826 8.04036 23.7305 8.64245 23.7305 9.35078V12.0424H27.9096C28.618 12.0424 29.2201 12.2904 29.7159 12.7862C30.2117 13.282 30.4596 13.8841 30.4596 14.5924V27.6258H3.54297ZM5.66797 25.5008H28.3346V20.8966H25.1471V22.3133H23.0221V20.8966H10.9805V22.3133H8.85547V20.8966H5.66797V25.5008ZM5.66797 14.5924V18.7716H8.85547V17.3549H10.9805V18.7716H23.0221V17.3549H25.1471V18.7716H28.3346V14.5924C28.3346 14.498 28.2874 14.4036 28.193 14.3091C28.0985 14.2147 28.0041 14.1674 27.9096 14.1674H6.09297C5.99852 14.1674 5.90408 14.2147 5.80964 14.3091C5.71519 14.4036 5.66797 14.498 5.66797 14.5924ZM12.3971 12.0424H21.6055V9.35078C21.6055 9.23273 21.5582 9.13214 21.4638 9.04903C21.3694 8.96686 21.2749 8.92578 21.1805 8.92578H12.8221C12.7277 8.92578 12.6332 8.96686 12.5388 9.04903C12.4444 9.13214 12.3971 9.23273 12.3971 9.35078V12.0424Z" fill="white"/>
</g>
</svg>
