<svg width="34" height="34" viewBox="0 0 34 34" fill="none" xmlns="http://www.w3.org/2000/svg">
<mask id="mask0_295_22881" style="mask-type:alpha" maskUnits="userSpaceOnUse" x="0" y="0" width="34" height="34">
<rect width="34" height="34" fill="#D9D9D9"/>
</mask>
<g mask="url(#mask0_295_22881)">
<path d="M14.9799 22.2771L24.507 12.75L23.0195 11.2625L14.9799 19.3021L10.9424 15.2646L9.45495 16.7521L14.9799 22.2771ZM7.50703 29.0417C6.7987 29.0417 6.19661 28.7937 5.70078 28.2979C5.20495 27.8021 4.95703 27.2 4.95703 26.4917V7.50833C4.95703 6.8 5.20495 6.19792 5.70078 5.70208C6.19661 5.20625 6.7987 4.95833 7.50703 4.95833H13.8112C13.9056 4.17917 14.2541 3.51192 14.8567 2.95658C15.4583 2.40219 16.1723 2.125 16.9987 2.125C17.8487 2.125 18.5688 2.40219 19.1591 2.95658C19.7494 3.51192 20.0918 4.17917 20.1862 4.95833H26.4904C27.1987 4.95833 27.8008 5.20625 28.2966 5.70208C28.7924 6.19792 29.0404 6.8 29.0404 7.50833V26.4917C29.0404 27.2 28.7924 27.8021 28.2966 28.2979C27.8008 28.7937 27.1987 29.0417 26.4904 29.0417H7.50703ZM7.50703 26.9167H26.4904C26.5848 26.9167 26.6793 26.8694 26.7737 26.775C26.8681 26.6806 26.9154 26.5861 26.9154 26.4917V7.50833C26.9154 7.41389 26.8681 7.31944 26.7737 7.225C26.6793 7.13056 26.5848 7.08333 26.4904 7.08333H7.50703C7.41259 7.08333 7.31814 7.13056 7.2237 7.225C7.12925 7.31944 7.08203 7.41389 7.08203 7.50833V26.4917C7.08203 26.5861 7.12925 26.6806 7.2237 26.775C7.31814 26.8694 7.41259 26.9167 7.50703 26.9167ZM16.9987 6.1625C17.3056 6.1625 17.5597 6.06192 17.7609 5.86075C17.9611 5.66053 18.0612 5.40694 18.0612 5.1C18.0612 4.79306 17.9611 4.539 17.7609 4.33783C17.5597 4.13761 17.3056 4.0375 16.9987 4.0375C16.6918 4.0375 16.4382 4.13761 16.2379 4.33783C16.0368 4.539 15.9362 4.79306 15.9362 5.1C15.9362 5.40694 16.0368 5.66053 16.2379 5.86075C16.4382 6.06192 16.6918 6.1625 16.9987 6.1625Z" fill="white"/>
</g>
</svg>
