<svg width="19" height="19" viewBox="0 0 19 19" fill="none" xmlns="http://www.w3.org/2000/svg">
<mask id="mask0_94_57265" style="mask-type:alpha" maskUnits="userSpaceOnUse" x="0" y="0" width="19" height="19">
<rect x="0.5" y="0.5" width="18" height="18" fill="#D9D9D9"/>
</mask>
<g mask="url(#mask0_94_57265)">
<path d="M6.5 17.75C6.0875 17.75 5.73438 17.6031 5.44063 17.3094C5.14688 17.0156 5 16.6625 5 16.25V13.25H6.5V14H14V5H6.5V5.75H5V2.75C5 2.3375 5.14688 1.98438 5.44063 1.69063C5.73438 1.39688 6.0875 1.25 6.5 1.25H14C14.4125 1.25 14.7656 1.39688 15.0594 1.69063C15.3531 1.98438 15.5 2.3375 15.5 2.75V16.25C15.5 16.6625 15.3531 17.0156 15.0594 17.3094C14.7656 17.6031 14.4125 17.75 14 17.75H6.5ZM6.5 15.5V16.25H14V15.5H6.5ZM3.8 13.25L2.75 12.2L6.95 8H4.25V6.5H9.5V11.75H8V9.05L3.8 13.25ZM6.5 3.5H14V2.75H6.5V3.5Z" fill="#3076D7"/>
</g>
</svg>
