<svg width="19" height="19" viewBox="0 0 19 19" fill="none" xmlns="http://www.w3.org/2000/svg">
<path d="M2.03906 9.49951L14.0391 9.49951" stroke="#3076D7" stroke-linecap="round" stroke-linejoin="round"/>
<path d="M9.49609 3.95801L15.0378 9.49967L9.49609 15.0413" stroke="#3076D7" stroke-linecap="round" stroke-linejoin="round"/>
</svg>
