<svg width="24" height="24" viewBox="0 0 24 24" fill="none" xmlns="http://www.w3.org/2000/svg">
<mask id="mask0_29_26267" style="mask-type:alpha" maskUnits="userSpaceOnUse" x="0" y="0" width="24" height="24">
<rect width="24" height="24" fill="#D9D9D9"/>
</mask>
<g mask="url(#mask0_29_26267)">
<path d="M5.14844 19.0002H6.39844L15.6484 9.7502L14.4234 8.5002L5.14844 17.7752V19.0002ZM18.8484 8.6502L15.4734 5.3002L16.5734 4.2002C16.9234 3.86686 17.3528 3.7002 17.8614 3.7002C18.3694 3.7002 18.7901 3.86686 19.1234 4.2002L20.1484 5.2252C20.4318 5.5252 20.5818 5.8792 20.5984 6.2872C20.6151 6.69586 20.4734 7.04186 20.1734 7.3252L18.8484 8.6502ZM17.7734 9.7502L7.02344 20.5002H3.64844V17.1252L14.3984 6.3752L17.7734 9.7502ZM15.0234 9.1252L14.4234 8.5002L15.6484 9.7502L15.0234 9.1252Z" fill="#858585"/>
</g>
</svg>
