<svg width="17" height="18" viewBox="0 0 17 18" fill="none" xmlns="http://www.w3.org/2000/svg">
<path d="M2.83854 3.00781H14.1719C14.951 3.00781 15.5885 3.64531 15.5885 4.42448V12.9245C15.5885 13.7036 14.951 14.3411 14.1719 14.3411H2.83854C2.05938 14.3411 1.42188 13.7036 1.42188 12.9245V4.42448C1.42188 3.64531 2.05938 3.00781 2.83854 3.00781Z" stroke="#858585" stroke-width="1.3" stroke-linecap="round" stroke-linejoin="round"/>
<path d="M15.5885 4.42188L8.50521 9.38021L1.42188 4.42188" stroke="#858585" stroke-width="1.3" stroke-linecap="round" stroke-linejoin="round"/>
</svg>
