<svg width="20" height="20" viewBox="0 0 20 20" fill="none" xmlns="http://www.w3.org/2000/svg">
<mask id="mask0_29_27727" style="mask-type:alpha" maskUnits="userSpaceOnUse" x="0" y="0" width="20" height="20">
<rect width="20" height="20" fill="#D9D9D9"/>
</mask>
<g mask="url(#mask0_29_27727)">
<path d="M10.0026 16.542L4.58594 13.6045V9.08366L1.71094 7.50033L10.0026 2.97949L18.2943 7.50033V13.5003H17.0443V8.18783L15.4193 9.08366V13.6045L10.0026 16.542ZM10.0026 10.5837L15.7109 7.50033L10.0026 4.41699L4.29427 7.50033L10.0026 10.5837ZM10.0026 15.1253L14.1693 12.8753V9.75033L10.0026 12.0212L5.83594 9.75033V12.8753L10.0026 15.1253Z" fill="#2E2E2E"/>
</g>
</svg>
