<svg width="33" height="32" viewBox="0 0 33 32" fill="none" xmlns="http://www.w3.org/2000/svg">
<mask id="mask0_95_3209" style="mask-type:alpha" maskUnits="userSpaceOnUse" x="0" y="0" width="33" height="32">
<rect x="0.807617" y="0.307617" width="31.3846" height="31.3846" fill="#D9D9D9"/>
</mask>
<g mask="url(#mask0_95_3209)">
<path d="M16.5018 26.2654L8.00177 21.6557V14.5615L3.49023 12.0769L16.5018 4.98267L29.5133 12.0769V21.4923H27.5518V13.1557L25.0018 14.5615V21.6557L16.5018 26.2654ZM16.5018 16.9154L25.4595 12.0769L16.5018 7.23844L7.54408 12.0769L16.5018 16.9154ZM16.5018 24.0423L23.0402 20.5115V15.6077L16.5018 19.1711L9.96331 15.6077V20.5115L16.5018 24.0423Z" fill="#858585"/>
</g>
</svg>
