<svg width="24" height="24" viewBox="0 0 24 24" fill="none" xmlns="http://www.w3.org/2000/svg">
<mask id="mask0_94_48134" style="mask-type:alpha" maskUnits="userSpaceOnUse" x="0" y="0" width="24" height="24">
<rect width="24" height="24" fill="#D9D9D9"/>
</mask>
<g mask="url(#mask0_94_48134)">
<path d="M9.69177 21.5L9.31102 18.4538C9.04318 18.3641 8.76852 18.2385 8.48702 18.077C8.20568 17.9153 7.9541 17.7422 7.73227 17.5577L4.91102 18.75L2.60352 14.75L5.04377 12.9058C5.02077 12.7571 5.00443 12.6077 4.99477 12.4578C4.9851 12.3078 4.98027 12.1583 4.98027 12.0095C4.98027 11.8673 4.9851 11.7228 4.99477 11.576C5.00443 11.4292 5.02077 11.2686 5.04377 11.0943L2.60352 9.25L4.91102 5.26925L7.72252 6.452C7.96368 6.261 8.2211 6.08633 8.49477 5.928C8.76843 5.76967 9.03735 5.64242 9.30152 5.54625L9.69177 2.5H14.3073L14.688 5.55575C14.988 5.66475 15.2594 5.792 15.5023 5.9375C15.7453 6.083 15.9905 6.2545 16.238 6.452L19.088 5.26925L21.3955 9.25L18.9168 11.123C18.9526 11.2845 18.9722 11.4355 18.9755 11.576C18.9787 11.7163 18.9803 11.8577 18.9803 12C18.9803 12.1358 18.977 12.274 18.9705 12.4145C18.9642 12.5548 18.9412 12.7154 18.9015 12.8963L21.361 14.75L19.0533 18.75L16.238 17.548C15.9905 17.7455 15.7379 17.9202 15.4803 18.072C15.2226 18.224 14.9585 18.3481 14.688 18.4443L14.3073 21.5H9.69177ZM10.9995 20H12.965L13.3245 17.3212C13.8348 17.1879 14.3012 16.9985 14.7235 16.753C15.146 16.5073 15.5534 16.1916 15.9458 15.8057L18.4303 16.85L19.415 15.15L17.2458 13.5155C17.3291 13.2565 17.3858 13.0026 17.4158 12.7537C17.4459 12.5051 17.461 12.2538 17.461 12C17.461 11.7397 17.4459 11.4884 17.4158 11.2463C17.3858 11.0039 17.3291 10.7564 17.2458 10.5038L19.434 8.85L18.4495 7.15L15.936 8.2095C15.6014 7.85183 15.2004 7.53583 14.7333 7.2615C14.2659 6.98717 13.7932 6.79292 13.315 6.67875L12.9995 4H11.015L10.684 6.66925C10.1738 6.78975 9.70277 6.97433 9.27077 7.223C8.8386 7.47183 8.42635 7.79233 8.03402 8.1845L5.54952 7.15L4.56502 8.85L6.72452 10.4595C6.64118 10.6968 6.58285 10.9437 6.54952 11.2C6.51618 11.4563 6.49952 11.7262 6.49952 12.0095C6.49952 12.2698 6.51618 12.525 6.54952 12.775C6.58285 13.025 6.63802 13.2718 6.71502 13.5155L4.56502 15.15L5.54952 16.85L8.02452 15.8C8.40402 16.1897 8.80977 16.5089 9.24177 16.7578C9.67393 17.0064 10.1515 17.1974 10.6745 17.3307L10.9995 20ZM12.011 15C12.843 15 13.551 14.708 14.135 14.124C14.719 13.54 15.011 12.832 15.011 12C15.011 11.168 14.719 10.46 14.135 9.876C13.551 9.292 12.843 9 12.011 9C11.1687 9 10.4581 9.292 9.87927 9.876C9.30043 10.46 9.01102 11.168 9.01102 12C9.01102 12.832 9.30043 13.54 9.87927 14.124C10.4581 14.708 11.1687 15 12.011 15Z" fill="#858585"/>
</g>
</svg>
