<svg width="18" height="18" viewBox="0 0 18 18" fill="none" xmlns="http://www.w3.org/2000/svg">
<mask id="mask0_47_5792" style="mask-type:alpha" maskUnits="userSpaceOnUse" x="0" y="0" width="18" height="18">
<rect width="18" height="18" fill="#D9D9D9"/>
</mask>
<g mask="url(#mask0_47_5792)">
<path d="M9.39375 13.875H3.84375C3.50625 13.875 3.21875 13.7562 2.98125 13.5187C2.74375 13.2812 2.625 12.9937 2.625 12.6562V4.59375C2.625 4.25625 2.74375 3.96875 2.98125 3.73125C3.21875 3.49375 3.50625 3.375 3.84375 3.375H4.875V1.875H5.625V3.375H10.875V1.875H11.625V3.375H12.6562C12.9937 3.375 13.2812 3.49375 13.5187 3.73125C13.7562 3.96875 13.875 4.25625 13.875 4.59375V9.39375C13.8125 9.38125 13.7533 9.375 13.6973 9.375H13.3035C13.247 9.375 13.1875 9.38125 13.125 9.39375V6.375H3.375V12.6562C3.375 12.7938 3.41875 12.9063 3.50625 12.9938C3.59375 13.0813 3.70625 13.125 3.84375 13.125H9.39375C9.38125 13.1875 9.375 13.247 9.375 13.3035V13.6965C9.375 13.753 9.38125 13.8125 9.39375 13.875ZM10.5 16.125C10.3875 16.125 10.2968 16.0875 10.2278 16.0125C10.1593 15.9375 10.125 15.85 10.125 15.75C10.125 15.6375 10.1593 15.5467 10.2278 15.4777C10.2968 15.4092 10.3875 15.375 10.5 15.375H13.8L11.1187 13.4813C11.0187 13.4188 10.9625 13.3408 10.95 13.2473C10.9375 13.1533 10.9563 13.0562 11.0063 12.9562C11.0688 12.8687 11.147 12.8188 11.241 12.8063C11.3345 12.7938 11.425 12.8125 11.5125 12.8625L14.25 14.7562L13.0875 11.6437C13.0625 11.5562 13.072 11.4625 13.116 11.3625C13.1595 11.2625 13.2312 11.1938 13.3312 11.1562C13.4187 11.1312 13.5158 11.1405 13.6223 11.184C13.7283 11.228 13.8 11.3 13.8375 11.4L14.9437 14.475L15.8063 11.3062C15.8438 11.2187 15.903 11.1467 15.984 11.0902C16.0655 11.0342 16.1562 11.0188 16.2562 11.0438C16.3437 11.0813 16.4188 11.1405 16.4813 11.2215C16.5438 11.303 16.5625 11.3937 16.5375 11.4937L15.3563 15.8438C15.3313 15.9313 15.2845 16 15.216 16.05C15.147 16.1 15.0688 16.125 14.9813 16.125H10.5Z" fill="#858585"/>
</g>
</svg>
